resposta_contador.vcd
$date
  Sun Nov 29 14:46:34 2020
$end
$version
  GHDL v0
$end
$timescale
  1 fs
$end
$var reg 1 ! test_inclk $end
$var reg 1 " test_outa $end
$var reg 1 # test_outb $end
$var reg 1 $ test_outc $end
$scope module uut $end
$var reg 1 % inclk $end
$var reg 1 & outa $end
$var reg 1 ' outb $end
$var reg 1 ( outc $end
$var reg 1 ) a $end
$var reg 1 * ab $end
$var reg 1 + b $end
$var reg 1 , bb $end
$var reg 1 - c $end
$var reg 1 . cb $end
$var reg 1 / s1 $end
$var reg 1 0 s2 $end
$scope module jk1 $end
$var reg 1 1 j $end
$var reg 1 2 k $end
$var reg 1 3 clk $end
$var reg 1 4 reset $end
$var reg 1 5 q $end
$var reg 1 6 qb $end
$upscope $end
$scope module jk2 $end
$var reg 1 7 j $end
$var reg 1 8 k $end
$var reg 1 9 clk $end
$var reg 1 : reset $end
$var reg 1 ; q $end
$var reg 1 < qb $end
$upscope $end
$scope module jk3 $end
$var reg 1 = j $end
$var reg 1 > k $end
$var reg 1 ? clk $end
$var reg 1 @ reset $end
$var reg 1 A q $end
$var reg 1 B qb $end
$upscope $end
$upscope $end
$enddefinitions $end
#0
0!
0"
0#
0$
0%
0&
0'
0(
0)
1*
0+
1,
0-
1.
1/
00
11
12
03
14
05
16
07
08
09
1:
0;
1<
0=
0>
0?
1@
0A
1B
#200000000
1!
1%
13
19
1?
#400000000
0!
1"
0%
1&
1)
0*
03
15
06
17
18
09
0?
#600000000
1!
1%
13
19
1?
#800000000
0!
0"
1#
0%
0&
1'
0)
1*
1+
0,
03
05
16
07
08
09
1;
0<
0?
#1000000000
1!
1%
13
19
1?
#1200000000
0!
1"
0%
1&
1)
0*
10
03
15
06
17
18
09
1=
1>
0?
#1400000000
1!
1%
13
19
1?
#1600000000
0!
0"
0#
1$
0%
0&
0'
1(
0)
1*
0+
1,
1-
0.
00
03
05
16
07
08
09
0;
1<
0=
0>
0?
1A
0B
#1800000000
1!
1%
13
19
1?
#2000000000
0!
1"
0%
1&
1)
0*
03
15
06
17
18
09
0?
#2200000000
1!
1%
13
19
1?
#2400000000
0!
0"
0#
0$
0%
0&
0'
0(
0)
1*
0+
1,
0-
1.
1/
03
14
05
16
07
08
09
1:
0;
1<
0?
1@
0A
1B
#2600000000
1!
1%
13
19
1?
#2800000000
0!
1"
0%
1&
1)
0*
03
15
06
17
18
09
0?
